Dish,Origin,"chicaca",4564
Ful Medammas,Middle East,uuuuuu,"12354"
Vindaloo,"India, Portugal","perfecto",12456
Maafe,West "Africa",ulala,1254
"Soondubu",Korea,qwerty,12415
Kuku,"Iran, Azerbaijan",",.2,31234,1/24,",2345
Shakshuka,North Africa,KET,"2135235"